\beamer@sectionintoc {1}{kurzfassung}{3}{0}{1}
\beamer@subsectionintoc {1}{1}{triviale toptagger}{3}{0}{1}
\beamer@subsectionintoc {1}{2}{Autoencoder Quality}{4}{0}{1}
\beamer@subsectionintoc {1}{3}{Normalisation und Invertierbare Netzwerke}{5}{0}{1}
\beamer@subsectionintoc {1}{4}{gewichtestes Training}{6}{0}{1}
\beamer@subsectionintoc {1}{5}{Fortgeschrittene Normalisation}{7}{0}{1}
\beamer@subsectionintoc {1}{6}{1 Netzwerke}{8}{0}{1}
\beamer@sectionintoc {2}{Triviale Toptagger}{9}{0}{2}
\beamer@sectionintoc {3}{Autoencoder Quality}{11}{0}{3}
\beamer@sectionintoc {4}{Normalisation und Invertierbare Netzwerke}{13}{0}{4}
\beamer@sectionintoc {5}{gewichtetes Training}{15}{0}{5}
\beamer@sectionintoc {6}{Fortgeschrittene Normalisierung}{17}{0}{6}
\beamer@sectionintoc {7}{1 Netzwerke}{19}{0}{7}
