\relax 
\providecommand\hyper@newdestlabel[2]{}
\providecommand\HyperFirstAtBeginDocument{\AtBeginDocument}
\HyperFirstAtBeginDocument{\ifx\hyper@anchor\@undefined
\global\let\oldcontentsline\contentsline
\gdef\contentsline#1#2#3#4{\oldcontentsline{#1}{#2}{#3}}
\global\let\oldnewlabel\newlabel
\gdef\newlabel#1#2{\newlabelxx{#1}#2}
\gdef\newlabelxx#1#2#3#4#5#6{\oldnewlabel{#1}{{#2}{#3}}}
\AtEndDocument{\ifx\hyper@anchor\@undefined
\let\contentsline\oldcontentsline
\let\newlabel\oldnewlabel
\fi}
\fi}
\global\let\hyper@last\relax 
\gdef\HyperFirstAtBeginDocument#1{#1}
\providecommand\HyField@AuxAddToFields[1]{}
\providecommand\HyField@AuxAddToCoFields[2]{}
\@writefile{nav}{\headcommand {\slideentry {0}{0}{1}{1/1}{}{0}}}
\@writefile{nav}{\headcommand {\beamer@framepages {1}{1}}}
\newlabel{Inhaltsverzeichnis<1>}{{2}{2}{}{Doc-Start}{}}
\@writefile{snm}{\beamer@slide {Inhaltsverzeichnis<1>}{2}}
\newlabel{Inhaltsverzeichnis}{{2}{2}{}{Doc-Start}{}}
\@writefile{snm}{\beamer@slide {Inhaltsverzeichnis}{2}}
\@writefile{nav}{\headcommand {\slideentry {0}{0}{2}{2/2}{}{0}}}
\@writefile{nav}{\headcommand {\beamer@framepages {2}{2}}}
\@writefile{toc}{\beamer@sectionintoc {1}{kurzfassung}{3}{0}{1}}
\@writefile{nav}{\headcommand {\beamer@sectionpages {1}{2}}}
\@writefile{nav}{\headcommand {\beamer@subsectionpages {1}{2}}}
\@writefile{nav}{\headcommand {\sectionentry {1}{kurzfassung}{3}{kurzfassung}{0}}}
\newlabel{sec:kurzfassung}{{1}{3}{kurzfassung}{Doc-Start}{}}
\@writefile{snm}{\beamer@slide {sec:kurzfassung}{3}}
\@writefile{toc}{\beamer@subsectionintoc {1}{1}{triviale toptagger}{3}{0}{1}}
\@writefile{nav}{\headcommand {\beamer@subsectionpages {3}{2}}}
\@writefile{nav}{\headcommand {\beamer@subsectionentry {0}{1}{1}{3}{triviale toptagger}}}
\newlabel{sec:triviale toptagger}{{1}{3}{triviale toptagger}{Doc-Start}{}}
\@writefile{snm}{\beamer@slide {sec:triviale toptagger}{3}}
\newlabel{fig:drawnzero}{{1}{3}{triviale toptagger}{Doc-Start}{}}
\@writefile{snm}{\beamer@slide {fig:drawnzero}{3}}
\newlabel{fig:rmeanangle3png}{{3}{3}{triviale toptagger}{Doc-Start}{}}
\@writefile{snm}{\beamer@slide {fig:rmeanangle3png}{3}}
\@writefile{nav}{\headcommand {\slideentry {1}{1}{1}{3/3}{triviale toptagger}{0}}}
\@writefile{nav}{\headcommand {\beamer@framepages {3}{3}}}
\@writefile{toc}{\beamer@subsectionintoc {1}{2}{Autoencoder Quality}{4}{0}{1}}
\@writefile{nav}{\headcommand {\beamer@subsectionpages {3}{3}}}
\@writefile{nav}{\headcommand {\beamer@subsectionentry {0}{1}{2}{4}{Autoencoder Quality}}}
\newlabel{sec:Autoencoder Quality}{{2}{4}{Autoencoder Quality}{Doc-Start}{}}
\@writefile{snm}{\beamer@slide {sec:Autoencoder Quality}{4}}
\newlabel{fig:simpledraw16}{{2}{4}{Autoencoder Quality}{Doc-Start}{}}
\@writefile{snm}{\beamer@slide {fig:simpledraw16}{4}}
\@writefile{nav}{\headcommand {\slideentry {1}{2}{1}{4/4}{Autoencoder Quality}{0}}}
\@writefile{nav}{\headcommand {\beamer@framepages {4}{4}}}
\@writefile{toc}{\beamer@subsectionintoc {1}{3}{Normalisation und Invertierbare Netzwerke}{5}{0}{1}}
\@writefile{nav}{\headcommand {\beamer@subsectionpages {4}{4}}}
\@writefile{nav}{\headcommand {\beamer@subsectionentry {0}{1}{3}{5}{Normalisation und Invertierbare Netzwerke}}}
\newlabel{sec:Normalisation und Invertierbare Netzwerke}{{3}{5}{Normalisation und Invertierbare Netzwerke}{Doc-Start}{}}
\@writefile{snm}{\beamer@slide {sec:Normalisation und Invertierbare Netzwerke}{5}}
\newlabel{fig:rtvl nl log 2 4 5 6 7 8 9}{{3}{5}{Normalisation und Invertierbare Netzwerke}{Doc-Start}{}}
\@writefile{snm}{\beamer@slide {fig:rtvl nl log 2 4 5 6 7 8 9}{5}}
\@writefile{nav}{\headcommand {\slideentry {1}{3}{1}{5/5}{Normalisation und Invertierbare Netzwerke}{0}}}
\@writefile{nav}{\headcommand {\beamer@framepages {5}{5}}}
\@writefile{toc}{\beamer@subsectionintoc {1}{4}{gewichtestes Training}{6}{0}{1}}
\@writefile{nav}{\headcommand {\beamer@subsectionpages {5}{5}}}
\@writefile{nav}{\headcommand {\beamer@subsectionentry {0}{1}{4}{6}{gewichtestes Training}}}
\newlabel{sec:gewichtestes Training}{{4}{6}{gewichtestes Training}{Doc-Start}{}}
\@writefile{snm}{\beamer@slide {sec:gewichtestes Training}{6}}
\newlabel{fig:ptdraw16}{{4}{6}{gewichtestes Training}{Doc-Start}{}}
\@writefile{snm}{\beamer@slide {fig:ptdraw16}{6}}
\@writefile{nav}{\headcommand {\slideentry {1}{4}{1}{6/6}{gewichtestes Training}{0}}}
\@writefile{nav}{\headcommand {\beamer@framepages {6}{6}}}
\@writefile{toc}{\beamer@subsectionintoc {1}{5}{Fortgeschrittene Normalisation}{7}{0}{1}}
\@writefile{nav}{\headcommand {\beamer@subsectionpages {6}{6}}}
\@writefile{nav}{\headcommand {\beamer@subsectionentry {0}{1}{5}{7}{Fortgeschrittene Normalisation}}}
\newlabel{sec:Fortgeschrittene Normalisation}{{5}{7}{Fortgeschrittene Normalisation}{Doc-Start}{}}
\@writefile{snm}{\beamer@slide {sec:Fortgeschrittene Normalisation}{7}}
\newlabel{fig:normcode}{{5}{7}{Fortgeschrittene Normalisation}{Doc-Start}{}}
\@writefile{snm}{\beamer@slide {fig:normcode}{7}}
\newlabel{fig:aucmapb}{{6}{7}{Fortgeschrittene Normalisation}{Doc-Start}{}}
\@writefile{snm}{\beamer@slide {fig:aucmapb}{7}}
\@writefile{nav}{\headcommand {\slideentry {1}{5}{1}{7/7}{Fortgeschrittene Normalisation}{0}}}
\@writefile{nav}{\headcommand {\beamer@framepages {7}{7}}}
\@writefile{toc}{\beamer@subsectionintoc {1}{6}{1 Netzwerke}{8}{0}{1}}
\@writefile{nav}{\headcommand {\beamer@subsectionpages {7}{7}}}
\@writefile{nav}{\headcommand {\beamer@subsectionentry {0}{1}{6}{8}{1 Netzwerke}}}
\newlabel{sec:1 Netzwerke}{{6}{8}{1 Netzwerke}{Doc-Start}{}}
\@writefile{snm}{\beamer@slide {sec:1 Netzwerke}{8}}
\newlabel{fig:aucmapb}{{7}{8}{1 Netzwerke}{Doc-Start}{}}
\@writefile{snm}{\beamer@slide {fig:aucmapb}{8}}
\@writefile{nav}{\headcommand {\slideentry {1}{6}{1}{8/8}{1 Netzwerke}{0}}}
\@writefile{nav}{\headcommand {\beamer@framepages {8}{8}}}
\@writefile{toc}{\beamer@sectionintoc {2}{Triviale Toptagger}{9}{0}{2}}
\@writefile{nav}{\headcommand {\beamer@sectionpages {3}{8}}}
\@writefile{nav}{\headcommand {\beamer@subsectionpages {8}{8}}}
\@writefile{nav}{\headcommand {\sectionentry {2}{Triviale Toptagger}{9}{Triviale Toptagger}{0}}}
\newlabel{sec:Triviale Toptagger}{{2}{9}{Triviale Toptagger}{Doc-Start}{}}
\@writefile{snm}{\beamer@slide {sec:Triviale Toptagger}{9}}
\newlabel{fig:drawnzero}{{8}{9}{Triviale Toptagger}{Doc-Start}{}}
\@writefile{snm}{\beamer@slide {fig:drawnzero}{9}}
\@writefile{nav}{\headcommand {\slideentry {2}{0}{1}{9/9}{}{0}}}
\@writefile{nav}{\headcommand {\beamer@framepages {9}{9}}}
\@writefile{nav}{\headcommand {\slideentry {2}{0}{2}{10/10}{}{0}}}
\@writefile{nav}{\headcommand {\beamer@framepages {10}{10}}}
\@writefile{toc}{\beamer@sectionintoc {3}{Autoencoder Quality}{11}{0}{3}}
\@writefile{nav}{\headcommand {\beamer@sectionpages {9}{10}}}
\@writefile{nav}{\headcommand {\beamer@subsectionpages {9}{10}}}
\@writefile{nav}{\headcommand {\sectionentry {3}{Autoencoder Quality}{11}{Autoencoder Quality}{0}}}
\newlabel{sec:Autoencoder Quality}{{3}{11}{Autoencoder Quality}{Doc-Start}{}}
\@writefile{snm}{\beamer@slide {sec:Autoencoder Quality}{11}}
\newlabel{fig:baddraw16}{{9}{11}{Autoencoder Quality}{Doc-Start}{}}
\@writefile{snm}{\beamer@slide {fig:baddraw16}{11}}
\@writefile{nav}{\headcommand {\slideentry {3}{0}{1}{11/11}{}{0}}}
\@writefile{nav}{\headcommand {\beamer@framepages {11}{11}}}
\newlabel{fig:simpledraw16}{{12}{12}{Autoencoder Quality}{Doc-Start}{}}
\@writefile{snm}{\beamer@slide {fig:simpledraw16}{12}}
\newlabel{fig:bigdraw16}{{12}{12}{Autoencoder Quality}{Doc-Start}{}}
\@writefile{snm}{\beamer@slide {fig:bigdraw16}{12}}
\@writefile{nav}{\headcommand {\slideentry {3}{0}{2}{12/12}{}{0}}}
\@writefile{nav}{\headcommand {\beamer@framepages {12}{12}}}
\@writefile{toc}{\beamer@sectionintoc {4}{Normalisation und Invertierbare Netzwerke}{13}{0}{4}}
\@writefile{nav}{\headcommand {\beamer@sectionpages {11}{12}}}
\@writefile{nav}{\headcommand {\beamer@subsectionpages {11}{12}}}
\@writefile{nav}{\headcommand {\sectionentry {4}{Normalisation und Invertierbare Netzwerke}{13}{Normalisation und Invertierbare Netzwerke}{0}}}
\newlabel{sec:Normalisation und Invertierbare Netzwerke}{{4}{13}{Normalisation und Invertierbare Netzwerke}{Doc-Start}{}}
\@writefile{snm}{\beamer@slide {sec:Normalisation und Invertierbare Netzwerke}{13}}
\newlabel{fig:rtvl nl log 2 4 5 6 7 8 9}{{10}{13}{Normalisation und Invertierbare Netzwerke}{Doc-Start}{}}
\@writefile{snm}{\beamer@slide {fig:rtvl nl log 2 4 5 6 7 8 9}{13}}
\@writefile{nav}{\headcommand {\slideentry {4}{0}{1}{13/13}{}{0}}}
\@writefile{nav}{\headcommand {\beamer@framepages {13}{13}}}
\newlabel{fig:rtvl 0 -8}{{11}{14}{Normalisation und Invertierbare Netzwerke}{Doc-Start}{}}
\@writefile{snm}{\beamer@slide {fig:rtvl 0 -8}{14}}
\@writefile{nav}{\headcommand {\slideentry {4}{0}{2}{14/14}{}{0}}}
\@writefile{nav}{\headcommand {\beamer@framepages {14}{14}}}
\@writefile{toc}{\beamer@sectionintoc {5}{gewichtetes Training}{15}{0}{5}}
\@writefile{nav}{\headcommand {\beamer@sectionpages {13}{14}}}
\@writefile{nav}{\headcommand {\beamer@subsectionpages {13}{14}}}
\@writefile{nav}{\headcommand {\sectionentry {5}{gewichtetes Training}{15}{gewichtetes Training}{0}}}
\newlabel{sec:gewichtetes Training}{{5}{15}{gewichtetes Training}{Doc-Start}{}}
\@writefile{snm}{\beamer@slide {sec:gewichtetes Training}{15}}
\newlabel{fig:rtvl log 0 -9}{{12}{15}{gewichtetes Training}{Doc-Start}{}}
\@writefile{snm}{\beamer@slide {fig:rtvl log 0 -9}{15}}
\@writefile{nav}{\headcommand {\slideentry {5}{0}{1}{15/15}{}{0}}}
\@writefile{nav}{\headcommand {\beamer@framepages {15}{15}}}
\newlabel{fig:ptdraw16}{{13}{16}{gewichtetes Training}{Doc-Start}{}}
\@writefile{snm}{\beamer@slide {fig:ptdraw16}{16}}
\@writefile{nav}{\headcommand {\slideentry {5}{0}{2}{16/16}{}{0}}}
\@writefile{nav}{\headcommand {\beamer@framepages {16}{16}}}
\@writefile{toc}{\beamer@sectionintoc {6}{Fortgeschrittene Normalisierung}{17}{0}{6}}
\@writefile{nav}{\headcommand {\beamer@sectionpages {15}{16}}}
\@writefile{nav}{\headcommand {\beamer@subsectionpages {15}{16}}}
\@writefile{nav}{\headcommand {\sectionentry {6}{Fortgeschrittene Normalisierung}{17}{Fortgeschrittene Normalisierung}{0}}}
\newlabel{sec:Fortgeschrittene Normalisierung}{{6}{17}{Fortgeschrittene Normalisierung}{Doc-Start}{}}
\@writefile{snm}{\beamer@slide {sec:Fortgeschrittene Normalisierung}{17}}
\newlabel{fig:totalcomp7}{{14}{17}{Fortgeschrittene Normalisierung}{Doc-Start}{}}
\@writefile{snm}{\beamer@slide {fig:totalcomp7}{17}}
\@writefile{nav}{\headcommand {\slideentry {6}{0}{1}{17/17}{}{0}}}
\@writefile{nav}{\headcommand {\beamer@framepages {17}{17}}}
\newlabel{fig:normcode}{{15}{18}{Fortgeschrittene Normalisierung}{Doc-Start}{}}
\@writefile{snm}{\beamer@slide {fig:normcode}{18}}
\@writefile{nav}{\headcommand {\slideentry {6}{0}{2}{18/18}{}{0}}}
\@writefile{nav}{\headcommand {\beamer@framepages {18}{18}}}
\@writefile{toc}{\beamer@sectionintoc {7}{1 Netzwerke}{19}{0}{7}}
\@writefile{nav}{\headcommand {\beamer@sectionpages {17}{18}}}
\@writefile{nav}{\headcommand {\beamer@subsectionpages {17}{18}}}
\@writefile{nav}{\headcommand {\sectionentry {7}{1 Netzwerke}{19}{1 Netzwerke}{0}}}
\newlabel{sec:1 Netzwerke}{{7}{19}{1 Netzwerke}{Doc-Start}{}}
\@writefile{snm}{\beamer@slide {sec:1 Netzwerke}{19}}
\@writefile{nav}{\headcommand {\slideentry {7}{0}{1}{19/19}{}{0}}}
\@writefile{nav}{\headcommand {\beamer@framepages {19}{19}}}
\@writefile{nav}{\headcommand {\slideentry {7}{0}{2}{20/20}{}{0}}}
\@writefile{nav}{\headcommand {\beamer@framepages {20}{20}}}
\newlabel{fig:mabe2}{{16}{21}{1 Netzwerke}{Doc-Start}{}}
\@writefile{snm}{\beamer@slide {fig:mabe2}{21}}
\@writefile{nav}{\headcommand {\slideentry {7}{0}{3}{21/21}{}{0}}}
\@writefile{nav}{\headcommand {\beamer@framepages {21}{21}}}
\@writefile{nav}{\headcommand {\beamer@partpages {1}{21}}}
\@writefile{nav}{\headcommand {\beamer@subsectionpages {19}{21}}}
\@writefile{nav}{\headcommand {\beamer@sectionpages {19}{21}}}
\@writefile{nav}{\headcommand {\beamer@documentpages {21}}}
\@writefile{nav}{\headcommand {\gdef \inserttotalframenumber {21}}}
